<?xml version="1.0" encoding="utf-8"?>
<!-- Generator: Adobe Illustrator 22.1.0, SVG Export Plug-In . SVG Version: 6.00 Build 0)  -->
<svg version="1.1" id="Capa_1" xmlns="http://www.w3.org/2000/svg" xmlns:xlink="http://www.w3.org/1999/xlink" x="0px" y="0px"
	 viewBox="0 0 467.2 261.3" style="enable-background:new 0 0 467.2 261.3;" xml:space="preserve">
<g>
	<g>
		<path d="M76.8,107.6C34.4,107.6,0,142,0,184.5c0,42.4,34.4,76.8,76.8,76.8c31,0,57.6-18.4,69.8-44.8l18.3,14.1
			c0,0,134.2,1,141.5-3.2c0,0-16.6-45.5,4.5-64.7c2.2-2,5-4.3,8.1-6.8c-3.5,8.8-5.5,18.5-5.5,28.6c0,42.4,34.4,76.8,76.8,76.8
			s76.8-34.4,76.8-76.8c0-42.5-34.4-76.8-76.8-76.8c-0.7,0-1.4,0.1-2.1,0.1c5.6-3.6,9.1-5.9,9.1-5.9l-5.8-5.1
			c0,0,16.7-3.8,12.8-12.2c-3.8-8.3-44.2-58.3-44.2-58.3s7.1-15.4-7.6-26.3l-7.1,15.4c0,0-18.1-12.5-25.3-10.1
			c-7.2,2.4-18,3.6-21.4,8.9l-3.4,3.1c0,0-1,5.5,4.6,13.7c0,0,55.5,17.1,58.1,29.5c0,0,3.8,7.9-12.7,9.8l-3.4,4.3l-8.9,0.5
			l-16.1-36.7c0,0-15.4,4.1-23.3,10.3L295,55c0,0-64.6-43.9-125.4,21.1c0,0-44.9,13-76.4-26.9c0,0-0.5-13-76.4-10.6l5.3,5.5
			c0,0-5.3,0.5-7.4,3.8c-2.2,3.4,1.2,7,18.5,7c0,0,39.2,44.7,69.2,42l42.7,20.7l19,32.4c0,0,0,2.8,0.2,7c-4.4,0.9-9.3,2-14.6,3.1
			C139.6,129.7,110.8,107.6,76.8,107.6z M390.3,131.1c29.4,0,53.3,23.9,53.3,53.3c0,29.4-23.9,53.3-53.3,53.3
			c-29.4,0-53.3-23.9-53.3-53.3C337,155.1,360.9,131.1,390.3,131.1z M76.8,237.7c-29.4,0-53.3-23.9-53.3-53.3
			c0-29.4,23.9-53.3,53.3-53.3c22.6,0,41.9,14.2,49.6,34c-28.3,6-56.3,12-56.3,12l3.6,19.9l55.3-2.4
			C124.4,219.2,102.7,237.7,76.8,237.7z M169.2,192.9c1.6,5.3,3.6,9.6,6.3,11.4l-24.7,1c1.1-3.8,1.9-7.7,2.3-11.7L169.2,192.9z"/>
	</g>
</g>
</svg>
