{
  "id": 15,
  "name": "Lyon Honda",
  "address": "0 Rue du combattant",
  "other_address": "impasse",
  "cp": "33000",
  "town": "Lyon",
  "lat": "0.50",
  "lng": "0.50",
  "department": "Gironde",
  "region": "Aquitaine",
  "location": "0.50,0.50",
  "url": "https://concession-bordeaux.honda.monkees.pro",
  "phone": "05 56 30 25 00 00",
  "fax": "05 56 30 25 00 00",
  "mail": "bordeaux.honda@gmail.com"
}


