{
  "presentation": {
    "submodels": [

        {
          "name": "LOREM IPSUM DOLOR Sporti 1 ",
          "cylindree": "XXX CM3 1",
          "moteur": "moteur",
          "puissance": "puissance",
          "couple": "couple",
          "transmission": "transmission",
          "frein": "frein",
          "suspension": "suspension",
          "poids": "poid",
          "reservoir": "reservoir",
          "consomation": "consomation",
          "hauteur": "hauteur"
        },
        {
          "name": "LOREM IPSUM DOLOR Sporti 2",
          "cylindree": "XXX CM3 2",
          "moteur": "moteur",
          "puissance": "puissance",
          "couple": "couple",
          "transmission": "transmission",
          "frein": "frein",
          "suspension": "suspension",
          "poids": "poid",
          "reservoir": "reservoir",
          "consomation": "consomation",
          "hauteur": "hauteur"
        },
        {
          "name": "LOREM IPSUM DOLOR Sporti 3",
          "cylindree": "XXX CM3 3",
          "moteur": "moteur",
          "puissance": "puissance",
          "couple": "couple",
          "transmission": "transmission",
          "frein": "frein",
          "suspension": "suspension",
          "poids": "poid",
          "reservoir": "reservoir",
          "consomation": "consomation",
          "hauteur": "hauteur"
        },
      {
        "name": "LOREM IPSUM DOLOR Sporti up",
        "cylindree": "XXX CM3",
        "moteur": "moteur",
        "puissance": "puissance",
        "couple": "couple",
        "transmission": "transmission",
        "frein": "frein",
        "suspension": "suspension",
        "poids": "poid",
        "reservoir": "reservoir",
        "consomation": "consomation",
        "hauteur": "hauteur up"
      }
    ]
  },
  "technologie": {
    "slides": [
      "https://promotion.honda.monkees.pro/media/dyn/media-10-1024.jpg",
      "https://promotion.honda.monkees.pro/media/dyn/media-10-1024.jpg",
      "https://promotion.honda.monkees.pro/media/dyn/media-10-1024.jpg"
    ],
    "features": [
      {
        "titre": "elit mollit eu anim est incididunt magna occaecat proident magna",
        "icon": "https://promotion.honda.monkees.pro/media/img/abs.png",
        "abr": "ABS"
      },
      {
        "titre": "elit mollit eu anim est incididunt magna occaecat proident magna",
        "icon": "https://promotion.honda.monkees.pro/media/img/bpf.png",
        "abr": "BDG"
      },
      {
        "titre": "elit mollit eu anim est incididunt magna occaecat proident magna",
        "icon": "https://promotion.honda.monkees.pro/media/img/hecs.png",
        "abr": "ZZZ"
      },
      {
        "titre": "elit mollit eu anim est incididunt magna occaecat proident magna",
        "icon": "https://promotion.honda.monkees.pro/media/img/hesd.png",
        "abr": "ABS"
      }
    ],
    "edito": {
      "titre": "Mode manuel standard",
      "description": "<h2>Dolore ea ut aliquip et qui commodo labore</h2>"
    },
    "btn_link": "https://promotion.honda.monkees.pro/media/dyn",
    "btn_label": " Voir la fiche détaillée sur notre site moto.honda.fr"
  }
}
