{
  "page_description": "Et ullamco dolor velit non nostrud fugiat do aliqua enim in",
  "price_description": "description prix",
  "reduced_price_description": "description sous prix",
  "stock_description": "description stock",
  "categories":
  [
    {
      "category": "Sportive",
      "category_slug": "sportives",
      "category_id": "10",
      "tarif_link":"https://automobiles.honda.com/-/media/Honda-Automobiles/Vehicles/2018/CR-",
      "brochure_link": "https://automobiles.honda.com/-/media/Honda-Automobiles/Vehicles/2018/CR-V/2018-Updates/Brochure/MY18_CR-V_Brochure_Online_Mech1.pdf",
      "image_category": "https://promotion.honda.monkees.pro/media/dyn/table-module-head.jpg",
      "description": "Sit cillum est laboris pariatur amet reprehenderit ut et enim officia aliqua ullamco. Esse ea ea enim dolor nostrud mollit dolor Lorem. Duis duis laborum irure reprehenderit velit minim voluptate. Minim laboris amet eiusmod occaecat deserunt exercitation ad commodo sint. Tempor minim aute elit mollit Lorem minim qui veniam commodo voluptate Lorem commodo eu. Voluptate quis laborum officia enim dolore Lorem do anim ad.,Nulla aute ex id excepteur qui quis amet esse consequat aliquip duis commodo sit aute. Nostrud minim eiusmod est aliqua dolore. Velit excepteur eiusmod irure adipisicing culpa ea labore reprehenderit ea. Magna fugiat consectetur incididunt consectetur incididunt do sit anim deserunt. Amet pariatur fugiat dolor velit non eu cillum minim magna consectetur occaecat nulla. Ut culpa officia veniam ut nostrud et tempor pariatur est consectetur adipisicing do anim velit. Mollit culpa pariatur pariatur duis aliquip.",
      "models" : [
        {
          "model_id": 1,
          "vehicle_ids": [
            {
              "vehicle_id": 2,
              "color": "red",
              "icon": "https://promotion.honda.monkees.pro/media/dyn/shade.png"
            },
            {
              "vehicle_id": 2,
              "color": "red",
              "icon": "https://promotion.honda.monkees.pro/media/dyn/shade.png"
            },
            {
              "vehicle_id": 3,
              "color": "red",
              "icon": "https://promotion.honda.monkees.pro/media/dyn/shade.png"
            }
          ],
          "reference": "GL1800BJ-ED",
          "model": "Mon modele",
          "slug": "mon-model-1",
          "cylinder": "300 cm",
          "driving_licence": "",
          "dispo_colors": [
            {
              "color": "red",
              "icon": "https://promotion.honda.monkees.pro/media/dyn/shade.png"
            },
            {
              "color": "red",
              "icon": "https://promotion.honda.monkees.pro/media/dyn/shade.png"
            },
            {
              "color": "red",
              "icon": "https://promotion.honda.monkees.pro/media/dyn/shade.png"
            }
          ],
          "price": "23 999",
          "reduced_price": "21 999",
          "image": {
            "url": "https://promotion.honda.monkees.pro/media/dyn/table-row.jpg",
            "srcsets": []
          },
          "submodel_ids": [1,2]
        },
        {
          "model_id": 2,
          "vehicle_ids": [
            {
              "vehicle_id": 2,
              "color": "red",
              "icon": "https://promotion.honda.monkees.pro/media/dyn/shade.png"
            },
            {
              "vehicle_id": 2,
              "color": "red",
              "icon": "https://promotion.honda.monkees.pro/media/dyn/shade.png"
            }
          ],
          "reference": "GL1800BJ-HD",
          "model": "In official",
          "slug": "mon-model-2",
          "cylinder": "200cm",
          "driving_licence": "A2",
          "dispo_colors": [
            {
              "color": "red",
              "icon": "https://promotion.honda.monkees.pro/media/dyn/shade.png"
            },
            {
              "color": "green",
              "icon": "https://promotion.honda.monkees.pro/media/dyn/shade.png"
            }
          ],
          "price": "23 999",
          "reduced_price": "21 999",
          "price_description": "description prix",
          "reduced_price_description": "description sous prix",
          "image": {
            "url": "https://promotion.honda.monkees.pro/media/dyn/table-row.jpg",
            "srcsets": []
          },
          "submodel_ids": [3, 4]
        },
        {
          "model_id": 3,
          "vehicle_ids": [
            {
              "vehicle_id": 2,
              "color": "red",
              "icon": "https://promotion.honda.monkees.pro/media/dyn/shade.png"
            },
            {
              "vehicle_id": 2,
              "color": "red",
              "icon": "https://promotion.honda.monkees.pro/media/dyn/shade.png"
            }
          ],
          "reference": "GL1800BJ-HD",
          "model": "Anim tempor",
          "slug": "amin-tempor",
          "cylinder": "150cm",
          "driving_licence": "",
          "dispo_colors": [
            {
              "color": "red",
              "icon": "https://promotion.honda.monkees.pro/media/dyn/shade.png"
            },
            {
              "color": "green",
              "icon": "https://promotion.honda.monkees.pro/media/dyn/shade.png"
            }
          ],
          "price": "23 999",
          "reduced_price": "21 999",
          "price_description": "description prix",
          "reduced_price_description": "description sous prix",
          "image": {
            "url": "https://promotion.honda.monkees.pro/media/dyn/table-row.jpg",
            "srcsets": []
          },
          "submodel_ids": [1]
        }
      ]
    },
    {
      "category": "Scooter",
      "category_slug": "scooter",
      "category_id": "10",
      "tarif_link":"https://automobiles.honda.com/-/media/Honda-Automobiles/Vehicles/2018/CR-",
      "brochure_link": "https://automobiles.honda.com/-/media/Honda-Automobiles/Vehicles/2018/CR-V/2018-Updates/Brochure/MY18_CR-V_Brochure_Online_Mech1.pdf",
      "image_category": "https://promotion.honda.monkees.pro/media/dyn/table-module-head.jpg",
      "description": "Sit cillum est laboris pariatur amet reprehenderit ut et enim officia aliqua ullamco. Esse ea ea enim dolor nostrud mollit dolor Lorem. Duis duis laborum irure reprehenderit velit minim voluptate. Minim laboris amet eiusmod occaecat deserunt exercitation ad commodo sint. Tempor minim aute elit mollit Lorem minim qui veniam commodo voluptate Lorem commodo eu. Voluptate quis laborum officia enim dolore Lorem do anim ad.,Nulla aute ex id excepteur qui quis amet esse consequat aliquip duis commodo sit aute. Nostrud minim eiusmod est aliqua dolore. Velit excepteur eiusmod irure adipisicing culpa ea labore reprehenderit ea. Magna fugiat consectetur incididunt consectetur incididunt do sit anim deserunt. Amet pariatur fugiat dolor velit non eu cillum minim magna consectetur occaecat nulla. Ut culpa officia veniam ut nostrud et tempor pariatur est consectetur adipisicing do anim velit. Mollit culpa pariatur pariatur duis aliquip.",
      "models" : [
        {
          "model_id": 1,
          "vehicle_ids": [
            {
              "vehicle_id": 2,
              "color": "red",
              "icon": "https://promotion.honda.monkees.pro/media/dyn/shade.png"
            },
            {
              "vehicle_id": 2,
              "color": "red",
              "icon": "https://promotion.honda.monkees.pro/media/dyn/shade.png"
            },
            {
              "vehicle_id": 3,
              "color": "red",
              "icon": "https://promotion.honda.monkees.pro/media/dyn/shade.png"
            }
          ],
          "reference": "GL1800BJ-ED scooter",
          "model": "Mon modele scooter",
          "slug": "mon-model-1",
          "cylinder": "300 cm",
          "driving_licence": "",
          "dispo_colors": [
            {
              "color": "red",
              "icon": "https://promotion.honda.monkees.pro/media/dyn/shade.png"
            },
            {
              "color": "red",
              "icon": "https://promotion.honda.monkees.pro/media/dyn/shade.png"
            }
          ],
          "price": "23 999",
          "reduced_price": "21 999",
          "image": {
            "url": "https://promotion.honda.monkees.pro/media/dyn/table-row.jpg",
            "srcsets": []
          },
          "submodel_ids": []
        },
        {
          "model_id": 2,
          "vehicle_ids": [
            {
              "vehicle_id": 2,
              "color": "red",
              "icon": "https://promotion.honda.monkees.pro/media/dyn/shade.png"
            },
            {
              "vehicle_id": 2,
              "color": "red",
              "icon": "https://promotion.honda.monkees.pro/media/dyn/shade.png"
            }
          ],
          "reference": "GL1800BJ-HD scooter",
          "model": "In official scooter",
          "slug": "mon-model-2",
          "cylinder": "200cm",
          "driving_licence": "A2",
          "dispo_colors": [
            {
              "color": "red",
              "icon": "https://promotion.honda.monkees.pro/media/dyn/shade.png"
            },
            {
              "color": "green",
              "icon": "https://promotion.honda.monkees.pro/media/dyn/shade.png"
            }
          ],
          "price": "23 999",
          "reduced_price": "21 999",
          "price_description": "description prix",
          "reduced_price_description": "description sous prix",
          "image": {
            "url": "https://promotion.honda.monkees.pro/media/dyn/table-row.jpg",
            "srcsets": []
          },
          "submodel_ids": [3]
        },
        {
          "model_id": 3,
          "vehicle_ids": [
            {
              "vehicle_id": 2,
              "color": "red",
              "icon": "https://promotion.honda.monkees.pro/media/dyn/shade.png"
            },
            {
              "vehicle_id": 2,
              "color": "red",
              "icon": "https://promotion.honda.monkees.pro/media/dyn/shade.png"
            }
          ],
          "reference": "GL1800BJ-HD scooter",
          "model": "Anim tempor scooter",
          "slug": "amin-tempor",
          "cylinder": "150cm",
          "driving_licence": "",
          "dispo_colors": [
            {
              "color": "red",
              "icon": "https://promotion.honda.monkees.pro/media/dyn/shade.png"
            }
          ],
          "price": "23 999",
          "reduced_price": "21 999",
          "price_description": "description prix",
          "reduced_price_description": "description sous prix",
          "image": {
            "url": "https://promotion.honda.monkees.pro/media/dyn/table-row.jpg",
            "srcsets": []
          },
          "submodel_ids": []
        }
      ]
    }

  ]
}
