{
  "endReached": true,
  "html": "<div class=\"big-box\"><div class=\"block media-2\"><a href=\"\"><div class=\"media\"><img class=\"o-fit\" src=\"media/dyn/media-03-1024.jpg\" srcset=\"media/dyn/media-03-320.jpg 144w, media/dyn/media-03-768.jpg 360w, media/dyn/media-03-1024.jpg 432w\" sizes=\"(min-width: 48em) 100px, (min-width: 64em) 352px\" alt=\"\"><span class=\"tag\"><span>Tag +</span></span></div><div class=\"text\"><span class=\"click-me\"></span><h2 class=\"tt\">Nom du véhicule lorem ipsum dolor met</h2><span class=\"sub ui-locate\">Saint-Etienne</span><span class=\"infos-line\"><span class=\"year\">2016</span><span class=\"km\">&nbsp;/ 43 200 Km /&nbsp;</span><span class=\"price\">9 000 €</span></span></div></a></div></div><div class=\"big-box\"><div class=\"block media-2\"><a href=\"\"><div class=\"media\"><img class=\"o-fit\" src=\"media/dyn/media-03-1024.jpg\" srcset=\"media/dyn/media-03-320.jpg 144w, media/dyn/media-03-768.jpg 360w, media/dyn/media-03-1024.jpg 432w\" sizes=\"(min-width: 48em) 100px, (min-width: 64em) 352px\" alt=\"\"><span class=\"tag\"><span>Tag +</span></span><span class=\"flag\"><span>Permis<strong>A2</strong></span></span></div><div class=\"text\"><span class=\"click-me\"></span><h2 class=\"tt\">Nom du véhicule lorem ipsum dolor met</h2><span class=\"sub ui-locate\">Saint-Etienne</span><span class=\"infos-line\"><span class=\"year\">2016</span><span class=\"km\">&nbsp;/ 43 200 Km /&nbsp;</span><span class=\"price\">9 000 €</span></span></div></a></div><div class=\"block media-2\"><a href=\"\"><div class=\"media\"><img class=\"o-fit\" src=\"media/dyn/media-03-1024.jpg\" srcset=\"media/dyn/media-03-320.jpg 144w, media/dyn/media-03-768.jpg 360w, media/dyn/media-03-1024.jpg 432w\" sizes=\"(min-width: 48em) 100px, (min-width: 64em) 352px\" alt=\"\"><span class=\"tag\"><span>Tag +</span></span><span class=\"flag\"><span>Permis<strong>A2</strong></span></span></div><div class=\"text\"><span class=\"click-me\"></span><h2 class=\"tt\">Nom du véhicule lorem ipsum dolor met</h2><span class=\"sub ui-locate\">Saint-Etienne</span><span class=\"infos-line\"><span class=\"year\">2016</span><span class=\"km\">&nbsp;/ 43 200 Km /&nbsp;</span><span class=\"price\">9 000 €</span></span></div></a></div><div class=\"block media-2\"><a href=\"\"><div class=\"media\"><img class=\"o-fit\" src=\"media/dyn/media-03-1024.jpg\" srcset=\"media/dyn/media-03-320.jpg 144w, media/dyn/media-03-768.jpg 360w, media/dyn/media-03-1024.jpg 432w\" sizes=\"(min-width: 48em) 100px, (min-width: 64em) 352px\" alt=\"\"><span class=\"tag\"><span>Tag +</span></span><span class=\"flag\"><span>Permis<strong>A2</strong></span></span></div><div class=\"text\"><span class=\"click-me\"></span><h2 class=\"tt\">Nom du véhicule lorem ipsum dolor met</h2><span class=\"sub ui-locate\">Saint-Etienne</span><span class=\"infos-line\"><span class=\"year\">2016</span><span class=\"km\">&nbsp;/ 43 200 Km /&nbsp;</span><span class=\"price\">9 000 €</span></span></div></a></div><div class=\"block media-2\"><a href=\"\"><div class=\"media\"><img class=\"o-fit\" src=\"media/dyn/media-03-1024.jpg\" srcset=\"media/dyn/media-03-320.jpg 144w, media/dyn/media-03-768.jpg 360w, media/dyn/media-03-1024.jpg 432w\" sizes=\"(min-width: 48em) 100px, (min-width: 64em) 352px\" alt=\"\"><span class=\"tag\"><span>Tag +</span></span><span class=\"flag\"><span>Permis<strong>A2</strong></span></span></div><div class=\"text\"><span class=\"click-me\"></span><h2 class=\"tt\">Nom du véhicule lorem ipsum dolor met</h2><span class=\"sub ui-locate\">Saint-Etienne</span><span class=\"infos-line\"><span class=\"year\">2016</span><span class=\"km\">&nbsp;/ 43 200 Km /&nbsp;</span><span class=\"price\">9 000 €</span></span></div></a></div></div><div class=\"big-box\"><div class=\"block media-2\"><a href=\"\"><div class=\"media\"><img class=\"o-fit\" src=\"media/dyn/media-03-1024.jpg\" srcset=\"media/dyn/media-03-320.jpg 144w, media/dyn/media-03-768.jpg 360w, media/dyn/media-03-1024.jpg 432w\" sizes=\"(min-width: 48em) 100px, (min-width: 64em) 352px\" alt=\"\"><span class=\"tag\"><span>Tag +</span></span><span class=\"flag\"><span>Permis<strong>A2</strong></span></span></div><div class=\"text\"><span class=\"click-me\"></span><h2 class=\"tt\">Nom du véhicule lorem ipsum dolor met</h2><span class=\"sub ui-locate\">Saint-Etienne</span><span class=\"infos-line\"><span class=\"year\">2016</span><span class=\"km\">&nbsp;/ 43 200 Km /&nbsp;</span><span class=\"price\">9 000 €</span></span></div></a></div><div class=\"block media-2\"><a href=\"\"><div class=\"media\"><img class=\"o-fit\" src=\"media/dyn/media-03-1024.jpg\" srcset=\"media/dyn/media-03-320.jpg 144w, media/dyn/media-03-768.jpg 360w, media/dyn/media-03-1024.jpg 432w\" sizes=\"(min-width: 48em) 100px, (min-width: 64em) 352px\" alt=\"\"><span class=\"tag\"><span>Tag +</span></span><span class=\"flag\"><span>Permis<strong>A2</strong></span></span></div><div class=\"text\"><span class=\"click-me\"></span><h2 class=\"tt\">Nom du véhicule lorem ipsum dolor met</h2><span class=\"sub ui-locate\">Saint-Etienne</span><span class=\"infos-line\"><span class=\"year\">2016</span><span class=\"km\">&nbsp;/ 43 200 Km /&nbsp;</span><span class=\"price\">9 000 €</span></span></div></a></div><div class=\"block media-2\"><a href=\"\"><div class=\"media\"><img class=\"o-fit\" src=\"media/dyn/media-03-1024.jpg\" srcset=\"media/dyn/media-03-320.jpg 144w, media/dyn/media-03-768.jpg 360w, media/dyn/media-03-1024.jpg 432w\" sizes=\"(min-width: 48em) 100px, (min-width: 64em) 352px\" alt=\"\"><span class=\"tag\"><span>Tag +</span></span><span class=\"flag\"><span>Permis<strong>A2</strong></span></span></div><div class=\"text\"><span class=\"click-me\"></span><h2 class=\"tt\">Nom du véhicule lorem ipsum dolor met</h2><span class=\"sub ui-locate\">Saint-Etienne</span><span class=\"infos-line\"><span class=\"year\">2016</span><span class=\"km\">&nbsp;/ 43 200 Km /&nbsp;</span><span class=\"price\">9 000 €</span></span></div></a></div><div class=\"block media-2\"><a href=\"\"><div class=\"media\"><img class=\"o-fit\" src=\"media/dyn/media-03-1024.jpg\" srcset=\"media/dyn/media-03-320.jpg 144w, media/dyn/media-03-768.jpg 360w, media/dyn/media-03-1024.jpg 432w\" sizes=\"(min-width: 48em) 100px, (min-width: 64em) 352px\" alt=\"\"><span class=\"tag\"><span>Tag +</span></span><span class=\"flag\"><span>Permis<strong>A2</strong></span></span></div><div class=\"text\"><span class=\"click-me\"></span><h2 class=\"tt\">Nom du véhicule lorem ipsum dolor met</h2><span class=\"sub ui-locate\">Saint-Etienne</span><span class=\"infos-line\"><span class=\"year\">2016</span><span class=\"km\">&nbsp;/ 43 200 Km /&nbsp;</span><span class=\"price\">9 000 €</span></span></div></a></div></div><div class=\"big-box\"><div class=\"block media-2\"><a href=\"\"><div class=\"media\"><img class=\"o-fit\" src=\"media/dyn/media-03-1024.jpg\" srcset=\"media/dyn/media-03-320.jpg 144w, media/dyn/media-03-768.jpg 360w, media/dyn/media-03-1024.jpg 432w\" sizes=\"(min-width: 48em) 100px, (min-width: 64em) 352px\" alt=\"\"><span class=\"tag\"><span>Tag +</span></span><span class=\"flag\"><span>Permis<strong>A2</strong></span></span></div><div class=\"text\"><span class=\"click-me\"></span><h2 class=\"tt\">Nom du véhicule lorem ipsum dolor met</h2><span class=\"sub ui-locate\">Saint-Etienne</span><span class=\"infos-line\"><span class=\"year\">2016</span><span class=\"km\">&nbsp;/ 43 200 Km /&nbsp;</span><span class=\"price\">9 000 €</span></span></div></a></div></div>"
}